{
  "docs": [
    {
      "rating": {
        "kp": 8.805
      },
      "name": "1+1"
    },
    {
      "rating": {
        "kp": 8.538
      },
      "name": "Джентльмены"
    },
    {
      "rating": {
        "kp": 7.961
      },
      "name": "Волк с Уолл-стрит"
    },
    {
      "rating": {
        "kp": 7.579
      },
      "name": "Гнев человеческий"
    },
    {
      "name": "Брат",
      "rating": {
        "kp": 8.29
      }
    },
    {
      "rating": {
        "kp": 8.275
      },
      "name": "Один дома"
    },
    {
      "rating": {
        "kp": 7.968
      },
      "name": "Аватар"
    },
    {
      "rating": {
        "kp": 8.662
      },
      "name": "Начало"
    },
    {
      "rating": {
        "kp": 9.108
      },
      "name": "Побег из Шоушенка"
    },
    {
      "rating": {
        "kp": 8.317
      },
      "name": "Зверополис"
    },
    {
      "name": "Иван Васильевич меняет профессию",
      "rating": {
        "kp": 8.785
      }
    },
    {
      "rating": {
        "kp": 9.071
      },
      "name": "Зеленая миля"
    },
    {
      "rating": {
        "kp": 8.373
      },
      "name": "Пираты Карибского моря: Проклятие Черной жемчужины"
    },
    {
      "name": "Игра престолов",
      "rating": {
        "kp": 8.98
      }
    },
    {
      "rating": {
        "kp": 8.618
      },
      "name": "Интерстеллар"
    },
    {
      "rating": {
        "kp": 8.261
      },
      "name": "Гарри Поттер и философский камень"
    },
    {
      "rating": {
        "kp": 8.08
      },
      "name": "Достать ножи"
    },
    {
      "name": "Брат 2",
      "rating": {
        "kp": 8.175
      }
    },
    {
      "rating": {
        "kp": 8.986
      },
      "name": "Рик и Морти"
    },
    {
      "rating": {
        "kp": 8.916
      },
      "name": "Форрест Гамп"
    },
    {
      "rating": {
        "kp": 8.706
      },
      "name": "Операция «Ы» и другие приключения Шурика"
    },
    {
      "rating": {
        "kp": 8.654
      },
      "name": "Бойцовский клуб"
    },
    {
      "rating": {
        "kp": 8.398
      },
      "name": "Зеленая книга"
    },
    {
      "name": "Остров проклятых",
      "rating": {
        "kp": 8.511
      }
    },
    {
      "name": "Любовь и голуби",
      "rating": {
        "kp": 8.286
      }
    },
    {
      "rating": {
        "kp": 8.06
      },
      "name": "Мстители: Война бесконечности"
    },
    {
      "rating": {
        "kp": 8.383
      },
      "name": "Титаник"
    },
    {
      "rating": {
        "kp": 6.897
      },
      "name": "Веном"
    },
    {
      "name": "Триггер",
      "rating": {
        "kp": 8.478
      }
    },
    {
      "rating": {
        "kp": 7.845
      },
      "name": "Мстители: Финал"
    },
    {
      "name": "Мажор",
      "rating": {
        "kp": 8.229
      }
    },
    {
      "name": "Монастырь",
      "rating": {
        "kp": 7.435
      }
    },
    {
      "rating": {
        "kp": 8.641
      },
      "name": "Криминальное чтиво"
    },
    {
      "rating": {
        "kp": 7.515
      },
      "name": "Доктор Стрэндж"
    },
    {
      "rating": {
        "kp": 7.673
      },
      "name": "Дюна"
    },
    {
      "rating": {
        "kp": 7.841
      },
      "name": "Стражи Галактики"
    },
    {
      "rating": {
        "kp": 8.497
      },
      "name": "Матрица"
    },
    {
      "rating": {
        "kp": 7.989
      },
      "name": "Области тьмы"
    },
    {
      "rating": {
        "kp": 8.519
      },
      "name": "Темный рыцарь"
    },
    {
      "rating": {
        "kp": 8.043
      },
      "name": "Рататуй"
    },
    {
      "name": "Мстители",
      "rating": {
        "kp": 7.893
      }
    },
    {
      "rating": {
        "kp": 8.706
      },
      "name": "Ну, погоди!"
    },
    {
      "rating": {
        "kp": 8.231
      },
      "name": "Джанго освобожденный"
    },
    {
      "name": "Легенда",
      "rating": {
        "kp": 7.184
      }
    },
    {
      "rating": {
        "kp": 8.525
      },
      "name": "Поймай меня, если сможешь"
    },
    {
      "name": "Джентльмены удачи",
      "rating": {
        "kp": 8.541
      }
    },
    {
      "rating": {
        "kp": 8.775
      },
      "name": "Король Лев"
    },
    {
      "rating": {
        "kp": 8.109
      },
      "name": "Шрэк"
    },
    {
      "rating": {
        "kp": 7.558
      },
      "name": "Дэдпул"
    },
    {
      "rating": {
        "kp": 8.722
      },
      "name": "Тайна Коко"
    },
    {
      "rating": {
        "kp": 8.244
      },
      "name": "Ford против Ferrari"
    },
    {
      "name": "Бриллиантовая рука",
      "rating": {
        "kp": 8.513
      }
    },
    {
      "rating": {
        "kp": 8.063
      },
      "name": "Шерлок Холмс"
    },
    {
      "rating": {
        "kp": 8.602
      },
      "name": "Властелин колец: Братство Кольца"
    },
    {
      "rating": {
        "kp": 8.359
      },
      "name": "ВАЛЛ·И"
    },
    {
      "rating": {
        "kp": 8.582
      },
      "name": "Гладиатор"
    },
    {
      "rating": {
        "kp": 8.644
      },
      "name": "Назад в будущее"
    },
    {
      "name": "Кавказская пленница, или Новые приключения Шурика",
      "rating": {
        "kp": 8.462
      }
    },
    {
      "rating": {
        "kp": 7.759
      },
      "name": "Марсианин"
    },
    {
      "rating": {
        "kp": 8.219
      },
      "name": "Гарри Поттер и узник Азкабана"
    },
    {
      "name": "Леон",
      "rating": {
        "kp": 8.669
      }
    },
    {
      "rating": {
        "kp": 8.137
      },
      "name": "Пираты Карибского моря: Сундук мертвеца"
    },
    {
      "rating": {
        "kp": 7.714
      },
      "name": "Иллюзия обмана"
    },
    {
      "name": "Железный человек",
      "rating": {
        "kp": 7.959
      }
    },
    {
      "name": "Беспринципные",
      "rating": {
        "kp": 7.665
      }
    },
    {
      "name": "Престиж",
      "rating": {
        "kp": 8.519
      }
    },
    {
      "rating": {
        "kp": 8.633
      },
      "name": "Достучаться до небес"
    },
    {
      "name": "Шерлок",
      "rating": {
        "kp": 8.861
      }
    },
    {
      "rating": {
        "kp": 8.121
      },
      "name": "Гарри Поттер и Тайная комната"
    },
    {
      "name": "Лига справедливости Зака Снайдера",
      "rating": {
        "kp": 7.834
      }
    },
    {
      "rating": {
        "kp": 7.959
      },
      "name": "Исчезнувшая"
    },
    {
      "rating": {
        "kp": 6.764
      },
      "name": "Холоп"
    },
    {
      "name": "Москва слезам не верит",
      "rating": {
        "kp": 8.418
      }
    },
    {
      "name": "Главный герой",
      "rating": {
        "kp": 7.39
      }
    },
    {
      "name": "Душа",
      "rating": {
        "kp": 8.379
      }
    },
    {
      "rating": {
        "kp": 8.074
      },
      "name": "Головоломка"
    },
    {
      "rating": {
        "kp": 8.22
      },
      "name": "Как приручить дракона"
    },
    {
      "name": "Законопослушный гражданин",
      "rating": {
        "kp": 8
      }
    },
    {
      "rating": {
        "kp": 7.458
      },
      "name": "Первому игроку приготовиться"
    },
    {
      "rating": {
        "kp": 7.979
      },
      "name": "Бесславные ублюдки"
    },
    {
      "rating": {
        "kp": 8.654
      },
      "name": "Властелин колец: Возвращение короля"
    },
    {
      "rating": {
        "kp": 7.978
      },
      "name": "Джокер"
    },
    {
      "rating": {
        "kp": 8.149
      },
      "name": "Гарри Поттер и Дары Смерти: Часть II"
    },
    {
      "rating": {
        "kp": 8.105
      },
      "name": "Пятый элемент"
    },
    {
      "rating": {
        "kp": 7.686
      },
      "name": "Дьявол носит Prada"
    },
    {
      "rating": {
        "kp": 8.599
      },
      "name": "Властелин колец: Две крепости"
    },
    {
      "name": "Один дома 2: Затерянный в Нью-Йорке",
      "rating": {
        "kp": 8.029
      }
    },
    {
      "rating": {
        "kp": 8.06
      },
      "name": "Пираты Карибского моря: На краю света"
    },
    {
      "rating": {
        "kp": 7.58
      },
      "name": "Круэлла"
    },
    {
      "name": "Алита: Боевой ангел",
      "rating": {
        "kp": 7.241
      }
    },
    {
      "name": "Во все тяжкие",
      "rating": {
        "kp": 8.88
      }
    },
    {
      "name": "Живая сталь",
      "rating": {
        "kp": 7.664
      }
    },
    {
      "rating": {
        "kp": 8.098
      },
      "name": "Хоббит: Нежданное путешествие"
    },
    {
      "rating": {
        "kp": 9.196
      },
      "name": "Жил-был пёс"
    },
    {
      "name": "Маша и Медведь",
      "rating": {
        "kp": 7.258
      }
    },
    {
      "name": "Гравити Фолз",
      "rating": {
        "kp": 8.963
      }
    },
    {
      "name": "Мажор в Сочи",
      "rating": {
        "kp": 7.059
      }
    },
    {
      "rating": {
        "kp": 7.527
      },
      "name": "Довод"
    },
    {
      "name": "Постучись в мою дверь",
      "rating": {
        "kp": 8.118
      }
    },
    {
      "rating": {
        "kp": 8.548
      },
      "name": "Большой куш"
    }
  ],
  "total": 941799,
  "limit": 100,
  "page": 1,
  "pages": 9418
}