{
  "docs": [
    {
      "rating": {
        "kp": 8.805,
        "imdb": 8.5,
        "filmCritics": 6.8,
        "russianFilmCritics": 100,
        "await": 0
      },
      "id": 535341,
      "name": "1+1"
    },
    {
      "rating": {
        "kp": 8.537,
        "imdb": 7.8,
        "filmCritics": 6.5,
        "russianFilmCritics": 86.3636,
        "await": 97.92
      },
      "id": 1143242,
      "name": "Джентльмены"
    },
    {
      "rating": {
        "kp": 7.961,
        "imdb": 8.2,
        "filmCritics": 7.8,
        "russianFilmCritics": 77.4194,
        "await": 96.62
      },
      "id": 462682,
      "name": "Волк с Уолл-стрит"
    },
    {
      "rating": {
        "kp": 7.579,
        "imdb": 7.1,
        "filmCritics": 6.3,
        "russianFilmCritics": 72.973,
        "await": 98.09
      },
      "id": 1318972,
      "name": "Гнев человеческий"
    },
    {
      "id": 41519,
      "name": "Брат",
      "rating": {
        "kp": 8.289,
        "imdb": 7.8,
        "filmCritics": 7.6,
        "russianFilmCritics": 0,
        "await": 0
      }
    },
    {
      "rating": {
        "kp": 8.275,
        "imdb": 7.7,
        "filmCritics": 5.8,
        "russianFilmCritics": 0,
        "await": 0
      },
      "id": 8124,
      "name": "Один дома"
    },
    {
      "rating": {
        "kp": 7.968,
        "imdb": 7.9,
        "filmCritics": 7.4,
        "russianFilmCritics": 75,
        "await": 85.93
      },
      "id": 251733,
      "name": "Аватар"
    },
    {
      "rating": {
        "kp": 8.662,
        "imdb": 8.8,
        "filmCritics": 8.1,
        "russianFilmCritics": 80.9524,
        "await": 87.61
      },
      "id": 447301,
      "name": "Начало"
    },
    {
      "rating": {
        "kp": 9.108,
        "imdb": 9.3,
        "filmCritics": 8.4,
        "russianFilmCritics": 0,
        "await": 0
      },
      "id": 326,
      "name": "Побег из Шоушенка"
    },
    {
      "rating": {
        "kp": 8.317,
        "imdb": 8,
        "filmCritics": 8.1,
        "russianFilmCritics": 100,
        "await": 95.49
      },
      "id": 775276,
      "name": "Зверополис"
    },
    {
      "id": 42664,
      "name": "Иван Васильевич меняет профессию",
      "rating": {
        "kp": 8.785,
        "imdb": 8.2,
        "filmCritics": 0,
        "russianFilmCritics": 0,
        "await": 0
      }
    },
    {
      "rating": {
        "kp": 9.071,
        "imdb": 8.6,
        "filmCritics": 6.8,
        "russianFilmCritics": 0,
        "await": 0
      },
      "id": 435,
      "name": "Зеленая миля"
    },
    {
      "rating": {
        "kp": 8.373,
        "imdb": 8.1,
        "filmCritics": 7.1,
        "russianFilmCritics": 0,
        "await": 0
      },
      "id": 4374,
      "name": "Пираты Карибского моря: Проклятие Черной жемчужины"
    },
    {
      "id": 464963,
      "name": "Игра престолов",
      "rating": {
        "kp": 8.98,
        "imdb": 9.2,
        "filmCritics": 0,
        "russianFilmCritics": 90,
        "await": 90.77
      }
    },
    {
      "rating": {
        "kp": 8.618,
        "imdb": 8.6,
        "filmCritics": 7.1,
        "russianFilmCritics": 80.6452,
        "await": 97.55
      },
      "id": 258687,
      "name": "Интерстеллар"
    },
    {
      "rating": {
        "kp": 8.261,
        "imdb": 7.6,
        "filmCritics": 7.1,
        "russianFilmCritics": 0,
        "await": 0
      },
      "id": 689,
      "name": "Гарри Поттер и философский камень"
    },
    {
      "rating": {
        "kp": 8.079,
        "imdb": 7.9,
        "filmCritics": 8.3,
        "russianFilmCritics": 90,
        "await": 98.96
      },
      "id": 1188529,
      "name": "Достать ножи"
    },
    {
      "id": 41520,
      "name": "Брат 2",
      "rating": {
        "kp": 8.174,
        "imdb": 7.7,
        "filmCritics": 0,
        "russianFilmCritics": 0,
        "await": 0
      }
    },
    {
      "rating": {
        "kp": 8.986,
        "imdb": 9.1,
        "filmCritics": 0,
        "russianFilmCritics": 87.5,
        "await": 0
      },
      "id": 685246,
      "name": "Рик и Морти"
    },
    {
      "rating": {
        "kp": 8.916,
        "imdb": 8.8,
        "filmCritics": 7.5,
        "russianFilmCritics": 0,
        "await": 0
      },
      "id": 448,
      "name": "Форрест Гамп"
    },
    {
      "rating": {
        "kp": 8.707,
        "imdb": 8.5,
        "filmCritics": 0,
        "russianFilmCritics": 0,
        "await": 0
      },
      "id": 42782,
      "name": "Операция «Ы» и другие приключения Шурика"
    },
    {
      "rating": {
        "kp": 8.654,
        "imdb": 8.8,
        "filmCritics": 7.4,
        "russianFilmCritics": 0,
        "await": 0
      },
      "id": 361,
      "name": "Бойцовский клуб"
    },
    {
      "rating": {
        "kp": 8.397,
        "imdb": 8.2,
        "filmCritics": 7.2,
        "russianFilmCritics": 93.75,
        "await": 99.09
      },
      "id": 1108577,
      "name": "Зеленая книга"
    },
    {
      "id": 397667,
      "name": "Остров проклятых",
      "rating": {
        "kp": 8.51,
        "imdb": 8.2,
        "filmCritics": 6.7,
        "russianFilmCritics": 85.7143,
        "await": 78.65
      }
    },
    {
      "rating": {
        "kp": 8.058,
        "imdb": 8.4,
        "filmCritics": 7.6,
        "russianFilmCritics": 86.3636,
        "await": 92.37
      },
      "id": 843649,
      "name": "Мстители: Война бесконечности"
    },
    {
      "id": 45146,
      "name": "Любовь и голуби",
      "rating": {
        "kp": 8.286,
        "imdb": 8,
        "filmCritics": 0,
        "russianFilmCritics": 0,
        "await": 0
      }
    },
    {
      "rating": {
        "kp": 8.382,
        "imdb": 7.9,
        "filmCritics": 8,
        "russianFilmCritics": 0,
        "await": 0
      },
      "id": 2213,
      "name": "Титаник"
    },
    {
      "rating": {
        "kp": 6.897,
        "imdb": 6.6,
        "filmCritics": 4.5,
        "russianFilmCritics": 38.8889,
        "await": 94.6
      },
      "id": 463634,
      "name": "Веном"
    },
    {
      "id": 1100777,
      "name": "Триггер",
      "rating": {
        "kp": 8.479,
        "imdb": 7.4,
        "filmCritics": 0,
        "russianFilmCritics": 71.4286,
        "await": 93.68
      }
    },
    {
      "rating": {
        "kp": 7.843,
        "imdb": 8.4,
        "filmCritics": 8.2,
        "russianFilmCritics": 70.5882,
        "await": 92.33
      },
      "id": 843650,
      "name": "Мстители: Финал"
    },
    {
      "id": 820638,
      "name": "Мажор",
      "rating": {
        "kp": 8.231,
        "imdb": 7.6,
        "filmCritics": 0,
        "russianFilmCritics": 0,
        "await": 81.25
      }
    },
    {
      "id": 5079093,
      "name": "Монастырь",
      "rating": {
        "kp": 7.44,
        "imdb": 0,
        "filmCritics": 0,
        "russianFilmCritics": 78.5714,
        "await": 88.74
      }
    },
    {
      "rating": {
        "kp": 7.515,
        "imdb": 7.5,
        "filmCritics": 7.3,
        "russianFilmCritics": 94.7368,
        "await": 95.79
      },
      "id": 409600,
      "name": "Доктор Стрэндж"
    },
    {
      "rating": {
        "kp": 8.641,
        "imdb": 8.9,
        "filmCritics": 9.2,
        "russianFilmCritics": 100,
        "await": 0
      },
      "id": 342,
      "name": "Криминальное чтиво"
    },
    {
      "rating": {
        "kp": 7.673,
        "imdb": 8,
        "filmCritics": 7.6,
        "russianFilmCritics": 72,
        "await": 96.96
      },
      "id": 409424,
      "name": "Дюна"
    },
    {
      "rating": {
        "kp": 7.84,
        "imdb": 8,
        "filmCritics": 7.8,
        "russianFilmCritics": 83.3333,
        "await": 95.04
      },
      "id": 689066,
      "name": "Стражи Галактики"
    },
    {
      "rating": {
        "kp": 8.497,
        "imdb": 8.7,
        "filmCritics": 7.8,
        "russianFilmCritics": 60,
        "await": 0
      },
      "id": 301,
      "name": "Матрица"
    },
    {
      "rating": {
        "kp": 7.989,
        "imdb": 7.4,
        "filmCritics": 6.4,
        "russianFilmCritics": 75,
        "await": 85.59
      },
      "id": 462606,
      "name": "Области тьмы"
    },
    {
      "rating": {
        "kp": 8.519,
        "imdb": 9,
        "filmCritics": 8.6,
        "russianFilmCritics": 45.4545,
        "await": 0
      },
      "id": 111543,
      "name": "Темный рыцарь"
    },
    {
      "rating": {
        "kp": 8.042,
        "imdb": 8.1,
        "filmCritics": 8.5,
        "russianFilmCritics": 100,
        "await": 0
      },
      "id": 89514,
      "name": "Рататуй"
    },
    {
      "id": 263531,
      "name": "Мстители",
      "rating": {
        "kp": 7.893,
        "imdb": 8,
        "filmCritics": 8.1,
        "russianFilmCritics": 83.3333,
        "await": 93.78
      }
    },
    {
      "rating": {
        "kp": 8.706,
        "imdb": 8.6,
        "filmCritics": 0,
        "russianFilmCritics": 0,
        "await": 0
      },
      "id": 46483,
      "name": "Ну, погоди!"
    },
    {
      "rating": {
        "kp": 8.231,
        "imdb": 8.4,
        "filmCritics": 8,
        "russianFilmCritics": 88.2353,
        "await": 92.92
      },
      "id": 586397,
      "name": "Джанго освобожденный"
    },
    {
      "id": 839954,
      "name": "Легенда",
      "rating": {
        "kp": 7.184,
        "imdb": 6.9,
        "filmCritics": 5.9,
        "russianFilmCritics": 76.9231,
        "await": 96.09
      }
    },
    {
      "rating": {
        "kp": 8.525,
        "imdb": 8.1,
        "filmCritics": 7.9,
        "russianFilmCritics": 80,
        "await": 0
      },
      "id": 324,
      "name": "Поймай меня, если сможешь"
    },
    {
      "id": 44386,
      "name": "Джентльмены удачи",
      "rating": {
        "kp": 8.541,
        "imdb": 8.4,
        "filmCritics": 0,
        "russianFilmCritics": 0,
        "await": 0
      }
    },
    {
      "rating": {
        "kp": 8.775,
        "imdb": 8.5,
        "filmCritics": 8.5,
        "russianFilmCritics": 0,
        "await": 0
      },
      "id": 2360,
      "name": "Король Лев"
    },
    {
      "rating": {
        "kp": 8.107,
        "imdb": 7.9,
        "filmCritics": 7.8,
        "russianFilmCritics": 0,
        "await": 0
      },
      "id": 430,
      "name": "Шрэк"
    },
    {
      "rating": {
        "kp": 7.558,
        "imdb": 8,
        "filmCritics": 7.1,
        "russianFilmCritics": 100,
        "await": 95.11
      },
      "id": 462360,
      "name": "Дэдпул"
    },
    {
      "rating": {
        "kp": 8.719,
        "imdb": 8.4,
        "filmCritics": 8.3,
        "russianFilmCritics": 94.1176,
        "await": 97.51
      },
      "id": 679486,
      "name": "Тайна Коко"
    },
    {
      "rating": {
        "kp": 8.244,
        "imdb": 8.1,
        "filmCritics": 7.8,
        "russianFilmCritics": 81.8182,
        "await": 96.61
      },
      "id": 835086,
      "name": "Ford против Ferrari"
    },
    {
      "rating": {
        "kp": 8.063,
        "imdb": 7.6,
        "filmCritics": 6.2,
        "russianFilmCritics": 100,
        "await": 83.06
      },
      "id": 420923,
      "name": "Шерлок Холмс"
    },
    {
      "id": 46225,
      "name": "Бриллиантовая рука",
      "rating": {
        "kp": 8.513,
        "imdb": 8.3,
        "filmCritics": 0,
        "russianFilmCritics": 0,
        "await": 0
      }
    },
    {
      "rating": {
        "kp": 8.602,
        "imdb": 8.8,
        "filmCritics": 8.2,
        "russianFilmCritics": 71.4286,
        "await": 0
      },
      "id": 328,
      "name": "Властелин колец: Братство Кольца"
    },
    {
      "rating": {
        "kp": 8.359,
        "imdb": 8.4,
        "filmCritics": 8.6,
        "russianFilmCritics": 93.3333,
        "await": 0
      },
      "id": 279102,
      "name": "ВАЛЛ·И"
    },
    {
      "rating": {
        "kp": 8.582,
        "imdb": 8.5,
        "filmCritics": 7.4,
        "russianFilmCritics": 50,
        "await": 0
      },
      "id": 474,
      "name": "Гладиатор"
    },
    {
      "rating": {
        "kp": 8.644,
        "imdb": 8.5,
        "filmCritics": 8.8,
        "russianFilmCritics": 0,
        "await": 0
      },
      "id": 476,
      "name": "Назад в будущее"
    },
    {
      "rating": {
        "kp": 7.758,
        "imdb": 8,
        "filmCritics": 7.9,
        "russianFilmCritics": 95.2381,
        "await": 97.82
      },
      "id": 841700,
      "name": "Марсианин"
    },
    {
      "id": 44745,
      "name": "Кавказская пленница, или Новые приключения Шурика",
      "rating": {
        "kp": 8.462,
        "imdb": 8.3,
        "filmCritics": 0,
        "russianFilmCritics": 0,
        "await": 0
      }
    },
    {
      "id": 389,
      "name": "Леон",
      "rating": {
        "kp": 8.669,
        "imdb": 8.5,
        "filmCritics": 6.9,
        "russianFilmCritics": 0,
        "await": 0
      }
    },
    {
      "rating": {
        "kp": 8.219,
        "imdb": 7.9,
        "filmCritics": 7.9,
        "russianFilmCritics": 80,
        "await": 0
      },
      "id": 322,
      "name": "Гарри Поттер и узник Азкабана"
    },
    {
      "rating": {
        "kp": 8.136,
        "imdb": 7.3,
        "filmCritics": 6,
        "russianFilmCritics": 0,
        "await": 0
      },
      "id": 63991,
      "name": "Пираты Карибского моря: Сундук мертвеца"
    },
    {
      "rating": {
        "kp": 7.714,
        "imdb": 7.2,
        "filmCritics": 5.8,
        "russianFilmCritics": 60,
        "await": 96.42
      },
      "id": 522892,
      "name": "Иллюзия обмана"
    },
    {
      "id": 61237,
      "name": "Железный человек",
      "rating": {
        "kp": 7.958,
        "imdb": 7.9,
        "filmCritics": 7.7,
        "russianFilmCritics": 100,
        "await": 0
      }
    },
    {
      "id": 195334,
      "name": "Престиж",
      "rating": {
        "kp": 8.519,
        "imdb": 8.5,
        "filmCritics": 7.1,
        "russianFilmCritics": 33.3333,
        "await": 0
      }
    },
    {
      "id": 1355059,
      "name": "Беспринципные",
      "rating": {
        "kp": 7.665,
        "imdb": 6.4,
        "filmCritics": 0,
        "russianFilmCritics": 50,
        "await": 94.9
      }
    },
    {
      "id": 502838,
      "name": "Шерлок",
      "rating": {
        "kp": 8.861,
        "imdb": 9.1,
        "filmCritics": 0,
        "russianFilmCritics": 75,
        "await": 0
      }
    },
    {
      "id": 1387021,
      "name": "Лига справедливости Зака Снайдера",
      "rating": {
        "kp": 7.835,
        "imdb": 8,
        "filmCritics": 6.7,
        "russianFilmCritics": 92.3077,
        "await": 98.63
      }
    },
    {
      "rating": {
        "kp": 8.121,
        "imdb": 7.4,
        "filmCritics": 7.2,
        "russianFilmCritics": 0,
        "await": 0
      },
      "id": 688,
      "name": "Гарри Поттер и Тайная комната"
    },
    {
      "rating": {
        "kp": 8.633,
        "imdb": 7.8,
        "filmCritics": 0,
        "russianFilmCritics": 100,
        "await": 0
      },
      "id": 32898,
      "name": "Достучаться до небес"
    },
    {
      "rating": {
        "kp": 7.959,
        "imdb": 8.1,
        "filmCritics": 8,
        "russianFilmCritics": 96.2963,
        "await": 96.18
      },
      "id": 692861,
      "name": "Исчезнувшая"
    },
    {
      "rating": {
        "kp": 6.763,
        "imdb": 6.7,
        "filmCritics": 0,
        "russianFilmCritics": 60,
        "await": 81.45
      },
      "id": 1183582,
      "name": "Холоп"
    },
    {
      "id": 46708,
      "name": "Москва слезам не верит",
      "rating": {
        "kp": 8.418,
        "imdb": 8.1,
        "filmCritics": 4.8,
        "russianFilmCritics": 0,
        "await": 0
      }
    },
    {
      "id": 1199100,
      "name": "Главный герой",
      "rating": {
        "kp": 7.389,
        "imdb": 7.1,
        "filmCritics": 7,
        "russianFilmCritics": 85.7143,
        "await": 95.15
      }
    },
    {
      "rating": {
        "kp": 8.073,
        "imdb": 8.2,
        "filmCritics": 8.9,
        "russianFilmCritics": 87.5,
        "await": 94.95
      },
      "id": 645118,
      "name": "Головоломка"
    },
    {
      "rating": {
        "kp": 7.458,
        "imdb": 7.4,
        "filmCritics": 6.8,
        "russianFilmCritics": 92.5926,
        "await": 92.89
      },
      "id": 538225,
      "name": "Первому игроку приготовиться"
    },
    {
      "rating": {
        "kp": 7.979,
        "imdb": 8.3,
        "filmCritics": 7.8,
        "russianFilmCritics": 80,
        "await": 83.74
      },
      "id": 9691,
      "name": "Бесславные ублюдки"
    },
    {
      "id": 406408,
      "name": "Законопослушный гражданин",
      "rating": {
        "kp": 8,
        "imdb": 7.4,
        "filmCritics": 4.4,
        "russianFilmCritics": 20,
        "await": 71.23
      }
    },
    {
      "rating": {
        "kp": 8.219,
        "imdb": 8.1,
        "filmCritics": 7.9,
        "russianFilmCritics": 100,
        "await": 68.42
      },
      "id": 280172,
      "name": "Как приручить дракона"
    },
    {
      "rating": {
        "kp": 8.654,
        "imdb": 9,
        "filmCritics": 8.7,
        "russianFilmCritics": 100,
        "await": 0
      },
      "id": 3498,
      "name": "Властелин колец: Возвращение короля"
    },
    {
      "id": 775273,
      "name": "Душа",
      "rating": {
        "kp": 8.376,
        "imdb": 8,
        "filmCritics": 8.3,
        "russianFilmCritics": 77.2727,
        "await": 96.86
      }
    },
    {
      "rating": {
        "kp": 8.149,
        "imdb": 8.1,
        "filmCritics": 8.3,
        "russianFilmCritics": 83.3333,
        "await": 82.85
      },
      "id": 407636,
      "name": "Гарри Поттер и Дары Смерти: Часть II"
    },
    {
      "rating": {
        "kp": 7.978,
        "imdb": 8.4,
        "filmCritics": 7.3,
        "russianFilmCritics": 89.6552,
        "await": 96.44
      },
      "id": 1048334,
      "name": "Джокер"
    },
    {
      "rating": {
        "kp": 8.105,
        "imdb": 7.6,
        "filmCritics": 6.4,
        "russianFilmCritics": 66.6667,
        "await": 0
      },
      "id": 2656,
      "name": "Пятый элемент"
    },
    {
      "rating": {
        "kp": 7.685,
        "imdb": 6.9,
        "filmCritics": 6.6,
        "russianFilmCritics": 0,
        "await": 0
      },
      "id": 104992,
      "name": "Дьявол носит Prada"
    },
    {
      "rating": {
        "kp": 8.599,
        "imdb": 8.8,
        "filmCritics": 8.5,
        "russianFilmCritics": 83.3333,
        "await": 0
      },
      "id": 312,
      "name": "Властелин колец: Две крепости"
    },
    {
      "id": 5928,
      "name": "Один дома 2: Затерянный в Нью-Йорке",
      "rating": {
        "kp": 8.029,
        "imdb": 6.8,
        "filmCritics": 4.5,
        "russianFilmCritics": 0,
        "await": 0
      }
    },
    {
      "rating": {
        "kp": 8.059,
        "imdb": 7.1,
        "filmCritics": 5.4,
        "russianFilmCritics": 0,
        "await": 0
      },
      "id": 102124,
      "name": "Пираты Карибского моря: На краю света"
    },
    {
      "id": 88173,
      "name": "Алита: Боевой ангел",
      "rating": {
        "kp": 7.239,
        "imdb": 7.3,
        "filmCritics": 6.1,
        "russianFilmCritics": 66.6667,
        "await": 89.98
      }
    },
    {
      "rating": {
        "kp": 7.579,
        "imdb": 7.3,
        "filmCritics": 6.8,
        "russianFilmCritics": 68,
        "await": 94.88
      },
      "id": 804662,
      "name": "Круэлла"
    },
    {
      "id": 88198,
      "name": "Живая сталь",
      "rating": {
        "kp": 7.664,
        "imdb": 7,
        "filmCritics": 5.9,
        "russianFilmCritics": 71.4286,
        "await": 89.3
      }
    },
    {
      "id": 404900,
      "name": "Во все тяжкие",
      "rating": {
        "kp": 8.88,
        "imdb": 9.5,
        "filmCritics": 0,
        "russianFilmCritics": 100,
        "await": 0
      }
    },
    {
      "rating": {
        "kp": 8.097,
        "imdb": 7.8,
        "filmCritics": 6.6,
        "russianFilmCritics": 90,
        "await": 93.99
      },
      "id": 278522,
      "name": "Хоббит: Нежданное путешествие"
    },
    {
      "id": 478491,
      "name": "Маша и Медведь",
      "rating": {
        "kp": 7.258,
        "imdb": 7.5,
        "filmCritics": 0,
        "russianFilmCritics": 0,
        "await": 0
      }
    },
    {
      "id": 591929,
      "name": "Гравити Фолз",
      "rating": {
        "kp": 8.963,
        "imdb": 8.9,
        "filmCritics": 0,
        "russianFilmCritics": 0,
        "await": 0
      }
    },
    {
      "rating": {
        "kp": 9.196,
        "imdb": 8.4,
        "filmCritics": 0,
        "russianFilmCritics": 0,
        "await": 0
      },
      "id": 45319,
      "name": "Жил-был пёс"
    },
    {
      "rating": {
        "kp": 7.528,
        "imdb": 7.3,
        "filmCritics": 6.9,
        "russianFilmCritics": 60,
        "await": 98.23
      },
      "id": 1236063,
      "name": "Довод"
    },
    {
      "id": 5078983,
      "name": "Мажор в Сочи",
      "rating": {
        "kp": 7.059,
        "imdb": 0,
        "filmCritics": 0,
        "russianFilmCritics": 0,
        "await": 94.54
      }
    },
    {
      "id": 819101,
      "name": "Омерзительная восьмерка",
      "rating": {
        "kp": 7.962,
        "imdb": 7.8,
        "filmCritics": 7.3,
        "russianFilmCritics": 87.0968,
        "await": 98.7
      }
    },
    {
      "rating": {
        "kp": 8.477,
        "imdb": 8.6,
        "filmCritics": 8.6,
        "russianFilmCritics": 100,
        "await": 0
      },
      "id": 370,
      "name": "Унесённые призраками"
    }
  ],
  "total": 941595,
  "limit": 100,
  "page": 1,
  "pages": 9416
}